[
	{
		"id" : 1,
		"sort_order" : 1,
		"created_at" : "2017-02-02 08:30:31",
		"created_by_id" : null,
		"updated_at" : "2017-02-27 12:48:17",
		"updated_by_id" : 3,
		"deleted_at" : null,
		"slug" : "body",
		"button_text" : "Почему мы так считаем",
		"image_id" : 337,
		"preview_id" : null,
		"video" : null
	},
	{
		"id" : 2,
		"sort_order" : 2,
		"created_at" : "2017-02-02 08:30:31",
		"created_by_id" : null,
		"updated_at" : "2017-02-27 12:50:40",
		"updated_by_id" : 3,
		"deleted_at" : null,
		"slug" : "iwata",
		"button_text" : "В чём их сила?",
		"image_id" : 338,
		"preview_id" : null,
		"video" : null
	},
	{
		"id" : 3,
		"sort_order" : 3,
		"created_at" : "2017-02-02 08:30:31",
		"created_by_id" : null,
		"updated_at" : "2017-02-27 12:52:30",
		"updated_by_id" : 3,
		"deleted_at" : null,
		"slug" : "norton",
		"button_text" : "Помогают экономить время",
		"image_id" : 340,
		"preview_id" : null,
		"video" : null
	}
]
